Processor/simulation/modelsim/msim_transcript
# Reading pref.tcl
# do processor_run_msim_rtl_verilog.do
# if {[file exists rtl_work]} {
# 	vdel -lib rtl_work -all
# }
# vlib rtl_work
# vmap work rtl_work
# Model Technology ModelSim - Intel FPGA Edition vmap 2020.1 Lib Mapping Utility 2020.02 Feb 28 2020
# vmap work rtl_work 
# Copying C:/intelFPGA_lite/20.1/modelsim_ase/win32aloem/../modelsim.ini to modelsim.ini
# Modifying modelsim.ini
# 
# vlog -sv -work work +incdir+C:/Users/YITAN/OneDrive/Escritorio/Proyecto\ TDD/ProyectoTDD/Processor {C:/Users/YITAN/OneDrive/Escritorio/Proyecto TDD/ProyectoTDD/Processor/Nbit_Sub.sv}
# Model Technology ModelSim - Intel FPGA Edition vlog 2020.1 Compiler 2020.02 Feb 28 2020
# Start time: 06:48:09 on Jun 13,2025
# vlog -reportprogress 300 -sv -work work "+incdir+C:/Users/YITAN/OneDrive/Escritorio/Proyecto TDD/ProyectoTDD/Processor" C:/Users/YITAN/OneDrive/Escritorio/Proyecto TDD/ProyectoTDD/Processor/Nbit_Sub.sv 
# -- Compiling module Nbit_Sub
# 
# Top level modules:
# 	Nbit_Sub
# End time: 06:48:10 on Jun 13,2025, Elapsed time: 0:00:01
# Errors: 0, Warnings: 0
# vlog -sv -work work +incdir+C:/Users/YITAN/OneDrive/Escritorio/Proyecto\ TDD/ProyectoTDD/Processor {C:/Users/YITAN/OneDrive/Escritorio/Proyecto TDD/ProyectoTDD/Processor/Nbit_Adder.sv}
# Model Technology ModelSim - Intel FPGA Edition vlog 2020.1 Compiler 2020.02 Feb 28 2020
# Start time: 06:48:10 on Jun 13,2025
# vlog -reportprogress 300 -sv -work work "+incdir+C:/Users/YITAN/OneDrive/Escritorio/Proyecto TDD/ProyectoTDD/Processor" C:/Users/YITAN/OneDrive/Escritorio/Proyecto TDD/ProyectoTDD/Processor/Nbit_Adder.sv 
# -- Compiling module Nbit_Adder
# 
# Top level modules:
# 	Nbit_Adder
# End time: 06:48:10 on Jun 13,2025, Elapsed time: 0:00:00
# Errors: 0, Warnings: 0
# vlog -sv -work work +incdir+C:/Users/YITAN/OneDrive/Escritorio/Proyecto\ TDD/ProyectoTDD/Processor {C:/Users/YITAN/OneDrive/Escritorio/Proyecto TDD/ProyectoTDD/Processor/full_subtractor.sv}
# Model Technology ModelSim - Intel FPGA Edition vlog 2020.1 Compiler 2020.02 Feb 28 2020
# Start time: 06:48:10 on Jun 13,2025
# vlog -reportprogress 300 -sv -work work "+incdir+C:/Users/YITAN/OneDrive/Escritorio/Proyecto TDD/ProyectoTDD/Processor" C:/Users/YITAN/OneDrive/Escritorio/Proyecto TDD/ProyectoTDD/Processor/full_subtractor.sv 
# -- Compiling module full_subtractor
# 
# Top level modules:
# 	full_subtractor
# End time: 06:48:10 on Jun 13,2025, Elapsed time: 0:00:00
# Errors: 0, Warnings: 0
# vlog -sv -work work +incdir+C:/Users/YITAN/OneDrive/Escritorio/Proyecto\ TDD/ProyectoTDD/Processor {C:/Users/YITAN/OneDrive/Escritorio/Proyecto TDD/ProyectoTDD/Processor/full_adder.sv}
# Model Technology ModelSim - Intel FPGA Edition vlog 2020.1 Compiler 2020.02 Feb 28 2020
# Start time: 06:48:10 on Jun 13,2025
# vlog -reportprogress 300 -sv -work work "+incdir+C:/Users/YITAN/OneDrive/Escritorio/Proyecto TDD/ProyectoTDD/Processor" C:/Users/YITAN/OneDrive/Escritorio/Proyecto TDD/ProyectoTDD/Processor/full_adder.sv 
# -- Compiling module full_adder
# 
# Top level modules:
# 	full_adder
# End time: 06:48:10 on Jun 13,2025, Elapsed time: 0:00:00
# Errors: 0, Warnings: 0
# vlog -sv -work work +incdir+C:/Users/YITAN/OneDrive/Escritorio/Proyecto\ TDD/ProyectoTDD/Processor {C:/Users/YITAN/OneDrive/Escritorio/Proyecto TDD/ProyectoTDD/Processor/datapath.sv}
# Model Technology ModelSim - Intel FPGA Edition vlog 2020.1 Compiler 2020.02 Feb 28 2020
# Start time: 06:48:10 on Jun 13,2025
# vlog -reportprogress 300 -sv -work work "+incdir+C:/Users/YITAN/OneDrive/Escritorio/Proyecto TDD/ProyectoTDD/Processor" C:/Users/YITAN/OneDrive/Escritorio/Proyecto TDD/ProyectoTDD/Processor/datapath.sv 
# -- Compiling module datapath
# 
# Top level modules:
# 	datapath
# End time: 06:48:10 on Jun 13,2025, Elapsed time: 0:00:00
# Errors: 0, Warnings: 0
# vlog -sv -work work +incdir+C:/Users/YITAN/OneDrive/Escritorio/Proyecto\ TDD/ProyectoTDD/Processor {C:/Users/YITAN/OneDrive/Escritorio/Proyecto TDD/ProyectoTDD/Processor/flopr.sv}
# Model Technology ModelSim - Intel FPGA Edition vlog 2020.1 Compiler 2020.02 Feb 28 2020
# Start time: 06:48:10 on Jun 13,2025
# vlog -reportprogress 300 -sv -work work "+incdir+C:/Users/YITAN/OneDrive/Escritorio/Proyecto TDD/ProyectoTDD/Processor" C:/Users/YITAN/OneDrive/Escritorio/Proyecto TDD/ProyectoTDD/Processor/flopr.sv 
# -- Compiling module flopr
# 
# Top level modules:
# 	flopr
# End time: 06:48:10 on Jun 13,2025, Elapsed time: 0:00:00
# Errors: 0, Warnings: 0
# vlog -sv -work work +incdir+C:/Users/YITAN/OneDrive/Escritorio/Proyecto\ TDD/ProyectoTDD/Processor {C:/Users/YITAN/OneDrive/Escritorio/Proyecto TDD/ProyectoTDD/Processor/adder.sv}
# Model Technology ModelSim - Intel FPGA Edition vlog 2020.1 Compiler 2020.02 Feb 28 2020
# Start time: 06:48:10 on Jun 13,2025
# vlog -reportprogress 300 -sv -work work "+incdir+C:/Users/YITAN/OneDrive/Escritorio/Proyecto TDD/ProyectoTDD/Processor" C:/Users/YITAN/OneDrive/Escritorio/Proyecto TDD/ProyectoTDD/Processor/adder.sv 
# -- Compiling module adder
# 
# Top level modules:
# 	adder
# End time: 06:48:10 on Jun 13,2025, Elapsed time: 0:00:00
# Errors: 0, Warnings: 0
# vlog -sv -work work +incdir+C:/Users/YITAN/OneDrive/Escritorio/Proyecto\ TDD/ProyectoTDD/Processor {C:/Users/YITAN/OneDrive/Escritorio/Proyecto TDD/ProyectoTDD/Processor/mux2.sv}
# Model Technology ModelSim - Intel FPGA Edition vlog 2020.1 Compiler 2020.02 Feb 28 2020
# Start time: 06:48:10 on Jun 13,2025
# vlog -reportprogress 300 -sv -work work "+incdir+C:/Users/YITAN/OneDrive/Escritorio/Proyecto TDD/ProyectoTDD/Processor" C:/Users/YITAN/OneDrive/Escritorio/Proyecto TDD/ProyectoTDD/Processor/mux2.sv 
# -- Compiling module mux2
# 
# Top level modules:
# 	mux2
# End time: 06:48:10 on Jun 13,2025, Elapsed time: 0:00:00
# Errors: 0, Warnings: 0
# vlog -sv -work work +incdir+C:/Users/YITAN/OneDrive/Escritorio/Proyecto\ TDD/ProyectoTDD/Processor {C:/Users/YITAN/OneDrive/Escritorio/Proyecto TDD/ProyectoTDD/Processor/register_file.sv}
# Model Technology ModelSim - Intel FPGA Edition vlog 2020.1 Compiler 2020.02 Feb 28 2020
# Start time: 06:48:10 on Jun 13,2025
# vlog -reportprogress 300 -sv -work work "+incdir+C:/Users/YITAN/OneDrive/Escritorio/Proyecto TDD/ProyectoTDD/Processor" C:/Users/YITAN/OneDrive/Escritorio/Proyecto TDD/ProyectoTDD/Processor/register_file.sv 
# -- Compiling module register_file
# 
# Top level modules:
# 	register_file
# End time: 06:48:10 on Jun 13,2025, Elapsed time: 0:00:00
# Errors: 0, Warnings: 0
# vlog -sv -work work +incdir+C:/Users/YITAN/OneDrive/Escritorio/Proyecto\ TDD/ProyectoTDD/Processor {C:/Users/YITAN/OneDrive/Escritorio/Proyecto TDD/ProyectoTDD/Processor/extend.sv}
# Model Technology ModelSim - Intel FPGA Edition vlog 2020.1 Compiler 2020.02 Feb 28 2020
# Start time: 06:48:10 on Jun 13,2025
# vlog -reportprogress 300 -sv -work work "+incdir+C:/Users/YITAN/OneDrive/Escritorio/Proyecto TDD/ProyectoTDD/Processor" C:/Users/YITAN/OneDrive/Escritorio/Proyecto TDD/ProyectoTDD/Processor/extend.sv 
# -- Compiling module extend
# 
# Top level modules:
# 	extend
# End time: 06:48:10 on Jun 13,2025, Elapsed time: 0:00:00
# Errors: 0, Warnings: 0
# vlog -sv -work work +incdir+C:/Users/YITAN/OneDrive/Escritorio/Proyecto\ TDD/ProyectoTDD/Processor {C:/Users/YITAN/OneDrive/Escritorio/Proyecto TDD/ProyectoTDD/Processor/alu.sv}
# Model Technology ModelSim - Intel FPGA Edition vlog 2020.1 Compiler 2020.02 Feb 28 2020
# Start time: 06:48:11 on Jun 13,2025
# vlog -reportprogress 300 -sv -work work "+incdir+C:/Users/YITAN/OneDrive/Escritorio/Proyecto TDD/ProyectoTDD/Processor" C:/Users/YITAN/OneDrive/Escritorio/Proyecto TDD/ProyectoTDD/Processor/alu.sv 
# -- Compiling module alu
# 
# Top level modules:
# 	alu
# End time: 06:48:11 on Jun 13,2025, Elapsed time: 0:00:00
# Errors: 0, Warnings: 0
# vlog -sv -work work +incdir+C:/Users/YITAN/OneDrive/Escritorio/Proyecto\ TDD/ProyectoTDD/Processor {C:/Users/YITAN/OneDrive/Escritorio/Proyecto TDD/ProyectoTDD/Processor/condcheck.sv}
# Model Technology ModelSim - Intel FPGA Edition vlog 2020.1 Compiler 2020.02 Feb 28 2020
# Start time: 06:48:11 on Jun 13,2025
# vlog -reportprogress 300 -sv -work work "+incdir+C:/Users/YITAN/OneDrive/Escritorio/Proyecto TDD/ProyectoTDD/Processor" C:/Users/YITAN/OneDrive/Escritorio/Proyecto TDD/ProyectoTDD/Processor/condcheck.sv 
# -- Compiling module condcheck
# 
# Top level modules:
# 	condcheck
# End time: 06:48:11 on Jun 13,2025, Elapsed time: 0:00:00
# Errors: 0, Warnings: 0
# vlog -sv -work work +incdir+C:/Users/YITAN/OneDrive/Escritorio/Proyecto\ TDD/ProyectoTDD/Processor {C:/Users/YITAN/OneDrive/Escritorio/Proyecto TDD/ProyectoTDD/Processor/decoder.sv}
# Model Technology ModelSim - Intel FPGA Edition vlog 2020.1 Compiler 2020.02 Feb 28 2020
# Start time: 06:48:11 on Jun 13,2025
# vlog -reportprogress 300 -sv -work work "+incdir+C:/Users/YITAN/OneDrive/Escritorio/Proyecto TDD/ProyectoTDD/Processor" C:/Users/YITAN/OneDrive/Escritorio/Proyecto TDD/ProyectoTDD/Processor/decoder.sv 
# -- Compiling module decoder
# 
# Top level modules:
# 	decoder
# End time: 06:48:11 on Jun 13,2025, Elapsed time: 0:00:00
# Errors: 0, Warnings: 0
# vlog -sv -work work +incdir+C:/Users/YITAN/OneDrive/Escritorio/Proyecto\ TDD/ProyectoTDD/Processor {C:/Users/YITAN/OneDrive/Escritorio/Proyecto TDD/ProyectoTDD/Processor/arm.sv}
# Model Technology ModelSim - Intel FPGA Edition vlog 2020.1 Compiler 2020.02 Feb 28 2020
# Start time: 06:48:11 on Jun 13,2025
# vlog -reportprogress 300 -sv -work work "+incdir+C:/Users/YITAN/OneDrive/Escritorio/Proyecto TDD/ProyectoTDD/Processor" C:/Users/YITAN/OneDrive/Escritorio/Proyecto TDD/ProyectoTDD/Processor/arm.sv 
# -- Compiling module arm
# 
# Top level modules:
# 	arm
# End time: 06:48:11 on Jun 13,2025, Elapsed time: 0:00:00
# Errors: 0, Warnings: 0
# vlog -sv -work work +incdir+C:/Users/YITAN/OneDrive/Escritorio/Proyecto\ TDD/ProyectoTDD/Processor {C:/Users/YITAN/OneDrive/Escritorio/Proyecto TDD/ProyectoTDD/Processor/controller.sv}
# Model Technology ModelSim - Intel FPGA Edition vlog 2020.1 Compiler 2020.02 Feb 28 2020
# Start time: 06:48:11 on Jun 13,2025
# vlog -reportprogress 300 -sv -work work "+incdir+C:/Users/YITAN/OneDrive/Escritorio/Proyecto TDD/ProyectoTDD/Processor" C:/Users/YITAN/OneDrive/Escritorio/Proyecto TDD/ProyectoTDD/Processor/controller.sv 
# -- Compiling module controller
# 
# Top level modules:
# 	controller
# End time: 06:48:11 on Jun 13,2025, Elapsed time: 0:00:00
# Errors: 0, Warnings: 0
# vlog -sv -work work +incdir+C:/Users/YITAN/OneDrive/Escritorio/Proyecto\ TDD/ProyectoTDD/Processor {C:/Users/YITAN/OneDrive/Escritorio/Proyecto TDD/ProyectoTDD/Processor/condlogic.sv}
# Model Technology ModelSim - Intel FPGA Edition vlog 2020.1 Compiler 2020.02 Feb 28 2020
# Start time: 06:48:11 on Jun 13,2025
# vlog -reportprogress 300 -sv -work work "+incdir+C:/Users/YITAN/OneDrive/Escritorio/Proyecto TDD/ProyectoTDD/Processor" C:/Users/YITAN/OneDrive/Escritorio/Proyecto TDD/ProyectoTDD/Processor/condlogic.sv 
# -- Compiling module condlogic
# 
# Top level modules:
# 	condlogic
# End time: 06:48:11 on Jun 13,2025, Elapsed time: 0:00:00
# Errors: 0, Warnings: 0
# vlog -sv -work work +incdir+C:/Users/YITAN/OneDrive/Escritorio/Proyecto\ TDD/ProyectoTDD/Processor {C:/Users/YITAN/OneDrive/Escritorio/Proyecto TDD/ProyectoTDD/Processor/processor.sv}
# Model Technology ModelSim - Intel FPGA Edition vlog 2020.1 Compiler 2020.02 Feb 28 2020
# Start time: 06:48:11 on Jun 13,2025
# vlog -reportprogress 300 -sv -work work "+incdir+C:/Users/YITAN/OneDrive/Escritorio/Proyecto TDD/ProyectoTDD/Processor" C:/Users/YITAN/OneDrive/Escritorio/Proyecto TDD/ProyectoTDD/Processor/processor.sv 
# -- Compiling module processor
# 
# Top level modules:
# 	processor
# End time: 06:48:11 on Jun 13,2025, Elapsed time: 0:00:00
# Errors: 0, Warnings: 0
# vlog -sv -work work +incdir+C:/Users/YITAN/OneDrive/Escritorio/Proyecto\ TDD/ProyectoTDD/Processor {C:/Users/YITAN/OneDrive/Escritorio/Proyecto TDD/ProyectoTDD/Processor/shifter.sv}
# Model Technology ModelSim - Intel FPGA Edition vlog 2020.1 Compiler 2020.02 Feb 28 2020
# Start time: 06:48:11 on Jun 13,2025
# vlog -reportprogress 300 -sv -work work "+incdir+C:/Users/YITAN/OneDrive/Escritorio/Proyecto TDD/ProyectoTDD/Processor" C:/Users/YITAN/OneDrive/Escritorio/Proyecto TDD/ProyectoTDD/Processor/shifter.sv 
# -- Compiling module shifter
# 
# Top level modules:
# 	shifter
# End time: 06:48:11 on Jun 13,2025, Elapsed time: 0:00:00
# Errors: 0, Warnings: 0
# vlog -sv -work work +incdir+C:/Users/YITAN/OneDrive/Escritorio/Proyecto\ TDD/ProyectoTDD/Processor {C:/Users/YITAN/OneDrive/Escritorio/Proyecto TDD/ProyectoTDD/Processor/vgaController.sv}
# Model Technology ModelSim - Intel FPGA Edition vlog 2020.1 Compiler 2020.02 Feb 28 2020
# Start time: 06:48:11 on Jun 13,2025
# vlog -reportprogress 300 -sv -work work "+incdir+C:/Users/YITAN/OneDrive/Escritorio/Proyecto TDD/ProyectoTDD/Processor" C:/Users/YITAN/OneDrive/Escritorio/Proyecto TDD/ProyectoTDD/Processor/vgaController.sv 
# -- Compiling module vgaController
# 
# Top level modules:
# 	vgaController
# End time: 06:48:11 on Jun 13,2025, Elapsed time: 0:00:00
# Errors: 0, Warnings: 0
# vlog -sv -work work +incdir+C:/Users/YITAN/OneDrive/Escritorio/Proyecto\ TDD/ProyectoTDD/Processor {C:/Users/YITAN/OneDrive/Escritorio/Proyecto TDD/ProyectoTDD/Processor/pll.sv}
# Model Technology ModelSim - Intel FPGA Edition vlog 2020.1 Compiler 2020.02 Feb 28 2020
# Start time: 06:48:11 on Jun 13,2025
# vlog -reportprogress 300 -sv -work work "+incdir+C:/Users/YITAN/OneDrive/Escritorio/Proyecto TDD/ProyectoTDD/Processor" C:/Users/YITAN/OneDrive/Escritorio/Proyecto TDD/ProyectoTDD/Processor/pll.sv 
# -- Compiling module pll
# 
# Top level modules:
# 	pll
# End time: 06:48:11 on Jun 13,2025, Elapsed time: 0:00:00
# Errors: 0, Warnings: 0
# vlog -sv -work work +incdir+C:/Users/YITAN/OneDrive/Escritorio/Proyecto\ TDD/ProyectoTDD/Processor {C:/Users/YITAN/OneDrive/Escritorio/Proyecto TDD/ProyectoTDD/Processor/vga_initializer.sv}
# Model Technology ModelSim - Intel FPGA Edition vlog 2020.1 Compiler 2020.02 Feb 28 2020
# Start time: 06:48:11 on Jun 13,2025
# vlog -reportprogress 300 -sv -work work "+incdir+C:/Users/YITAN/OneDrive/Escritorio/Proyecto TDD/ProyectoTDD/Processor" C:/Users/YITAN/OneDrive/Escritorio/Proyecto TDD/ProyectoTDD/Processor/vga_initializer.sv 
# -- Compiling module vga_initializer
# 
# Top level modules:
# 	vga_initializer
# End time: 06:48:11 on Jun 13,2025, Elapsed time: 0:00:00
# Errors: 0, Warnings: 0
# vlog -sv -work work +incdir+C:/Users/YITAN/OneDrive/Escritorio/Proyecto\ TDD/ProyectoTDD/Processor {C:/Users/YITAN/OneDrive/Escritorio/Proyecto TDD/ProyectoTDD/Processor/Nbit_Mult.sv}
# Model Technology ModelSim - Intel FPGA Edition vlog 2020.1 Compiler 2020.02 Feb 28 2020
# Start time: 06:48:12 on Jun 13,2025
# vlog -reportprogress 300 -sv -work work "+incdir+C:/Users/YITAN/OneDrive/Escritorio/Proyecto TDD/ProyectoTDD/Processor" C:/Users/YITAN/OneDrive/Escritorio/Proyecto TDD/ProyectoTDD/Processor/Nbit_Mult.sv 
# -- Compiling module Nbit_Mult
# 
# Top level modules:
# 	Nbit_Mult
# End time: 06:48:12 on Jun 13,2025, Elapsed time: 0:00:00
# Errors: 0, Warnings: 0
# vlog -sv -work work +incdir+C:/Users/YITAN/OneDrive/Escritorio/Proyecto\ TDD/ProyectoTDD/Processor {C:/Users/YITAN/OneDrive/Escritorio/Proyecto TDD/ProyectoTDD/Processor/instruction_memory.sv}
# Model Technology ModelSim - Intel FPGA Edition vlog 2020.1 Compiler 2020.02 Feb 28 2020
# Start time: 06:48:12 on Jun 13,2025
# vlog -reportprogress 300 -sv -work work "+incdir+C:/Users/YITAN/OneDrive/Escritorio/Proyecto TDD/ProyectoTDD/Processor" C:/Users/YITAN/OneDrive/Escritorio/Proyecto TDD/ProyectoTDD/Processor/instruction_memory.sv 
# -- Compiling module instruction_memory
# 
# Top level modules:
# 	instruction_memory
# End time: 06:48:12 on Jun 13,2025, Elapsed time: 0:00:00
# Errors: 0, Warnings: 0
# vlog -sv -work work +incdir+C:/Users/YITAN/OneDrive/Escritorio/Proyecto\ TDD/ProyectoTDD/Processor {C:/Users/YITAN/OneDrive/Escritorio/Proyecto TDD/ProyectoTDD/Processor/data_memory.sv}
# Model Technology ModelSim - Intel FPGA Edition vlog 2020.1 Compiler 2020.02 Feb 28 2020
# Start time: 06:48:12 on Jun 13,2025
# vlog -reportprogress 300 -sv -work work "+incdir+C:/Users/YITAN/OneDrive/Escritorio/Proyecto TDD/ProyectoTDD/Processor" C:/Users/YITAN/OneDrive/Escritorio/Proyecto TDD/ProyectoTDD/Processor/data_memory.sv 
# -- Compiling module data_memory
# 
# Top level modules:
# 	data_memory
# End time: 06:48:12 on Jun 13,2025, Elapsed time: 0:00:00
# Errors: 0, Warnings: 0
# vlog -sv -work work +incdir+C:/Users/YITAN/OneDrive/Escritorio/Proyecto\ TDD/ProyectoTDD/Processor {C:/Users/YITAN/OneDrive/Escritorio/Proyecto TDD/ProyectoTDD/Processor/videoGen.sv}
# Model Technology ModelSim - Intel FPGA Edition vlog 2020.1 Compiler 2020.02 Feb 28 2020
# Start time: 06:48:12 on Jun 13,2025
# vlog -reportprogress 300 -sv -work work "+incdir+C:/Users/YITAN/OneDrive/Escritorio/Proyecto TDD/ProyectoTDD/Processor" C:/Users/YITAN/OneDrive/Escritorio/Proyecto TDD/ProyectoTDD/Processor/videoGen.sv 
# -- Compiling module videoGen
# 
# Top level modules:
# 	videoGen
# End time: 06:48:12 on Jun 13,2025, Elapsed time: 0:00:00
# Errors: 0, Warnings: 0
# 
# vlog -sv -work work +incdir+C:/Users/YITAN/OneDrive/Escritorio/Proyecto\ TDD/ProyectoTDD/Processor {C:/Users/YITAN/OneDrive/Escritorio/Proyecto TDD/ProyectoTDD/Processor/processor_tb.sv}
# Model Technology ModelSim - Intel FPGA Edition vlog 2020.1 Compiler 2020.02 Feb 28 2020
# Start time: 06:48:12 on Jun 13,2025
# vlog -reportprogress 300 -sv -work work "+incdir+C:/Users/YITAN/OneDrive/Escritorio/Proyecto TDD/ProyectoTDD/Processor" C:/Users/YITAN/OneDrive/Escritorio/Proyecto TDD/ProyectoTDD/Processor/processor_tb.sv 
# -- Compiling module processor_tb
# 
# Top level modules:
# 	processor_tb
# End time: 06:48:12 on Jun 13,2025, Elapsed time: 0:00:00
# Errors: 0, Warnings: 0
# 
# vsim -t 1ps -L altera_ver -L lpm_ver -L sgate_ver -L altera_mf_ver -L altera_lnsim_ver -L cyclonev_ver -L cyclonev_hssi_ver -L cyclonev_pcie_hip_ver -L rtl_work -L work -voptargs="+acc"  processor_tb
# vsim -t 1ps -L altera_ver -L lpm_ver -L sgate_ver -L altera_mf_ver -L altera_lnsim_ver -L cyclonev_ver -L cyclonev_hssi_ver -L cyclonev_pcie_hip_ver -L rtl_work -L work -voptargs=""+acc"" processor_tb 
# Start time: 06:48:12 on Jun 13,2025
# Loading sv_std.std
# Loading work.processor_tb
# Loading work.processor
# Loading work.arm
# Loading work.controller
# Loading work.decoder
# Loading work.condlogic
# Loading work.flopr
# Loading work.condcheck
# Loading work.datapath
# Loading work.adder
# Loading work.mux2
# Loading work.register_file
# Loading work.extend
# Loading work.shifter
# Loading work.alu
# Loading work.Nbit_Sub
# Loading work.Nbit_Adder
# Loading work.Nbit_Mult
# Loading work.instruction_memory
# Loading work.data_memory
# Loading work.vga_initializer
# Loading work.pll
# Loading work.vgaController
# Loading work.videoGen
# Loading work.full_subtractor
# Loading work.full_adder
# ** Warning: (vsim-2685) [TFMPC] - Too few port connections for 'dp'.  Expected 23, found 22.
#    Time: 0 ps  Iteration: 0  Instance: /processor_tb/dut/arm_inst/dp File: C:/Users/YITAN/OneDrive/Escritorio/Proyecto TDD/ProyectoTDD/Processor/arm.sv Line: 46
# ** Warning: (vsim-3722) C:/Users/YITAN/OneDrive/Escritorio/Proyecto TDD/ProyectoTDD/Processor/arm.sv(46): [TFMPC] - Missing connection for port 'MemWrite'.
# 
# add wave *
# ** Warning: (vsim-WLF-5000) WLF file currently in use: vsim.wlf
#           File in use by: lobok  Hostname: DELLLAPTOP  ProcessID: 9664
#           Attempting to use alternate WLF file "./wlftd9g1rh".
# ** Warning: (vsim-WLF-5001) Could not open WLF file: vsim.wlf
#           Using alternate file: ./wlftd9g1rh
# view structure
# .main_pane.structure.interior.cs.body.struct
# view signals
# .main_pane.objects.interior.cs.body.tree
# run -all
# --- Depuración de Carga de IMEM ---
# ROM[0x000] (esperado LDR R7) = e3a07000
# ROM[0x001] (esperado MOV R0) = e5970000
# ROM[0x002] (esperado MOV R1) = e5971004
# --- Fin Depuración IMEM ---
# 
# --- Depuración de Carga de Memoria de Datos (RAM) ---
# Memoria de datos cargada (RAM[0:1023]):
#   RAM[0x000] (Word Index 0) = 0000000a
#   RAM[0x001] (Word Index 1) = 00000005
#   RAM[0x002] (Word Index 2) = 00000001
#   RAM[0x003] (Word Index 3) = 00000000
#   RAM[0x004] (Word Index 4) = 00000000
#   RAM[0x005] (Word Index 5) = 00000000
#   RAM[0x006] (Word Index 6) = 00000000
#   RAM[0x007] (Word Index 7) = 00000000
#   RAM[0x008] (Word Index 8) = 00000000
#   RAM[0x009] (Word Index 9) = 00000000
#   Confirmando datos clave para la calculadora (basado en 'data_test_suma.dat'):
#     RAM[0x000] (Operando 1, Word Index 0) = 0000000a
#     RAM[0x001] (Operando 2, Word Index 1) = 00000005
#     RAM[0x002] (Operador, Word Index 2) = 00000001
#     RAM[0x003] (Espacio para Resultado, Word Index 3) = 00000000
# --- Fin Depuración de Carga de Memoria de Datos ---
# Time=0 ns | PC=00000000 | Instr=e3a07000 | ALURes=00000000 | WrtDat=00000000 | MemWrt=0 | RdDat=xxxxxxxx | R0=00000000 R1=00000000 R2=00000000 R3=00000000 R7=00000000
# 
# === Iniciando prueba de la calculadora ARM ===
# 
# --- Caso de prueba 1: SUMA (10 + 5) ---
# Time=10000 ns | PC=00000000 | Instr=e3a07000 | ALURes=00000000 | WrtDat=00000000 | MemWrt=0 | RdDat=0000000a | R0=00000000 R1=00000000 R2=00000000 R3=00000000 R7=00000000
# Time=30000 ns | PC=00000004 | Instr=e5970000 | ALURes=00000000 | WrtDat=00000000 | MemWrt=0 | RdDat=0000000a | R0=00000000 R1=00000000 R2=00000000 R3=00000000 R7=00000000
# Time=40000 ns | PC=00000008 | Instr=e5971004 | ALURes=00000004 | WrtDat=00000000 | MemWrt=0 | RdDat=0000000a | R0=0000000a R1=00000000 R2=00000000 R3=00000000 R7=00000000
# Time=50000 ns | PC=0000000c | Instr=e5972008 | ALURes=00000008 | WrtDat=00000000 | MemWrt=0 | RdDat=00000005 | R0=0000000a R1=0000000a R2=00000000 R3=00000000 R7=00000000
# Time=60000 ns | PC=00000010 | Instr=e3520001 | ALURes=00000006 | WrtDat=0000000a | MemWrt=0 | RdDat=00000001 | R0=0000000a R1=0000000a R2=00000005 R3=00000000 R7=00000000
# Time=70000 ns | PC=00000014 | Instr=0a000000 | ALURes=00000014 | WrtDat=0000000a | MemWrt=0 | RdDat=00000005 | R0=0000000a R1=0000000a R2=00000005 R3=00000000 R7=00000000
# Time=80000 ns | PC=00000018 | Instr=e3520002 | ALURes=00000007 | WrtDat=00000005 | MemWrt=0 | RdDat=00000000 | R0=0000000a R1=0000000a R2=00000005 R3=00000000 R7=00000000
# Time=90000 ns | PC=0000001c | Instr=0a000003 | ALURes=0000000a | WrtDat=00000000 | MemWrt=0 | RdDat=00000005 | R0=0000000a R1=0000000a R2=00000005 R3=00000000 R7=00000000
# Time=100000 ns | PC=00000020 | Instr=e3520003 | ALURes=00000008 | WrtDat=00000000 | MemWrt=0 | RdDat=00000001 | R0=0000000a R1=0000000a R2=00000005 R3=00000000 R7=00000000
# Time=110000 ns | PC=00000024 | Instr=0a000006 | ALURes=0000000a | WrtDat=00000000 | MemWrt=0 | RdDat=00000001 | R0=0000000a R1=0000000a R2=00000005 R3=00000000 R7=00000000
# Time=120000 ns | PC=00000028 | Instr=e3520004 | ALURes=00000009 | WrtDat=00000000 | MemWrt=0 | RdDat=00000001 | R0=0000000a R1=0000000a R2=00000005 R3=00000000 R7=00000000
# Time=130000 ns | PC=0000002c | Instr=0a000009 | ALURes=0000000a | WrtDat=00000000 | MemWrt=0 | RdDat=00000001 | R0=0000000a R1=0000000a R2=00000005 R3=00000000 R7=00000000
# Time=140000 ns | PC=00000030 | Instr=ea000010 | ALURes=00000014 | WrtDat=0000000a | MemWrt=0 | RdDat=00000001 | R0=0000000a R1=0000000a R2=00000005 R3=00000000 R7=00000000
# Time=150000 ns | PC=00000014 | Instr=0a000000 | ALURes=00000014 | WrtDat=0000000a | MemWrt=0 | RdDat=00000000 | R0=0000000a R1=0000000a R2=00000005 R3=00000000 R7=00000000
# Time=160000 ns | PC=00000018 | Instr=e3520002 | ALURes=00000007 | WrtDat=00000005 | MemWrt=0 | RdDat=00000000 | R0=0000000a R1=0000000a R2=00000005 R3=00000000 R7=00000000
# Time=170000 ns | PC=0000001c | Instr=0a000003 | ALURes=0000000a | WrtDat=00000000 | MemWrt=0 | RdDat=00000005 | R0=0000000a R1=0000000a R2=00000005 R3=00000000 R7=00000000
# Time=180000 ns | PC=00000020 | Instr=e3520003 | ALURes=00000008 | WrtDat=00000000 | MemWrt=0 | RdDat=00000001 | R0=0000000a R1=0000000a R2=00000005 R3=00000000 R7=00000000
# Time=190000 ns | PC=00000024 | Instr=0a000006 | ALURes=0000000a | WrtDat=00000000 | MemWrt=0 | RdDat=00000001 | R0=0000000a R1=0000000a R2=00000005 R3=00000000 R7=00000000
# Time=200000 ns | PC=00000028 | Instr=e3520004 | ALURes=00000009 | WrtDat=00000000 | MemWrt=0 | RdDat=00000001 | R0=0000000a R1=0000000a R2=00000005 R3=00000000 R7=00000000
# Time=210000 ns | PC=0000002c | Instr=0a000009 | ALURes=0000000a | WrtDat=00000000 | MemWrt=0 | RdDat=00000001 | R0=0000000a R1=0000000a R2=00000005 R3=00000000 R7=00000000
# Time=220000 ns | PC=00000030 | Instr=ea000010 | ALURes=00000014 | WrtDat=0000000a | MemWrt=0 | RdDat=00000001 | R0=0000000a R1=0000000a R2=00000005 R3=00000000 R7=00000000
# Time=230000 ns | PC=00000014 | Instr=0a000000 | ALURes=00000014 | WrtDat=0000000a | MemWrt=0 | RdDat=00000000 | R0=0000000a R1=0000000a R2=00000005 R3=00000000 R7=00000000
# Time=240000 ns | PC=00000018 | Instr=e3520002 | ALURes=00000007 | WrtDat=00000005 | MemWrt=0 | RdDat=00000000 | R0=0000000a R1=0000000a R2=00000005 R3=00000000 R7=00000000
# Time=250000 ns | PC=0000001c | Instr=0a000003 | ALURes=0000000a | WrtDat=00000000 | MemWrt=0 | RdDat=00000005 | R0=0000000a R1=0000000a R2=00000005 R3=00000000 R7=00000000
# Time=260000 ns | PC=00000020 | Instr=e3520003 | ALURes=00000008 | WrtDat=00000000 | MemWrt=0 | RdDat=00000001 | R0=0000000a R1=0000000a R2=00000005 R3=00000000 R7=00000000
# Time=270000 ns | PC=00000024 | Instr=0a000006 | ALURes=0000000a | WrtDat=00000000 | MemWrt=0 | RdDat=00000001 | R0=0000000a R1=0000000a R2=00000005 R3=00000000 R7=00000000
